Tools for Actigraphy Data Analysis • actverse
…
read_acttrust(): Read, tidy, and validate an ActTrust file.

write_acttrust(): Adapt and write a tsibble to a readable ActTrust file.

Example:

file <- get_from_zenodo(
    doi = "10.5281/zenodo.4898822", path = tempdir(),
    file = "processed.txt"
)

data <- read_acttrust(file, tz = "America/Sao_Paulo")

data
#> # A tsibble: 51,806 x 17 [1m] <America/Sao_Paulo>
#>    timestamp             pim   tat   zcm orienta…¹ wrist…² exter…³ light ambie…⁴
#>    <dttm>              <dbl> <dbl> <dbl>     <dbl>   <dbl>   <dbl> <dbl>   <dbl>
#>  1 2021-04-24 04:14:00  7815   608   228         0    26.9    24.6  3.58    1.45
#>  2 2021-04-24 04:15:00  2661   160    64         0    27.2    25.1  5.23    2.12
#>  3 2021-04-24 04:16:00  3402   243    80         0    27.7    25.5  3.93    1.59
#>  4 2021-04-24 04:17:00  4580   317   125         0    27.9    25.8  4.14    1.68
#>  5 2021-04-24 04:18:00  2624   255    33         0    28.0    25.9  3.16    1.28
#>  6 2021-04-24 04:19:00  3929   246   105         0    28.1    26.1  3.63    1.47
#>  7 2021-04-24 04:20:00  5812   369   171         0    28.2    26.4 11.5     4.67
#>  8 2021-04-24 04:21:00  3182   270    54         0    28.4    26.7  2.4     0.97
#>  9 2021-04-24 04:22:00  6362   373   189         0    28.6    26.9  3.28    1.33
#> 10 2021-04-24 04:23:00  2621   159    64         0    28.7    27.1  2.97    1.2 
#> # … with 51,796 more rows, 8 more variables: red_light <dbl>,
#> #   green_light <dbl>, blue_light <dbl>, ir_light <dbl>, uva_light <dbl>,
#> #   uvb_light <dbl>, event <dbl>, state <dbl>, and abbreviated variable names
#> #   ¹​orientation, ²​wrist_temperature, ³​external_temperature, ⁴​ambient_light
…
