…
Example:

> Compare the results with the actogram plot shown in the following
> sections.

``` r
sri_data <- data |> sri()

sri_data
#> # A tsibble: 1,440 x 5 [1m]
#>   time   state      previous_state agreement    sri
#>   <time> <list>     <list>         <list>     <dbl>
#> 1 00'00" <fct [36]> <fct [36]>     <lgl [36]>  77.1
#> 2 01'00" <fct [36]> <fct [36]>     <lgl [36]>  77.1
#> 3 02'00" <fct [36]> <fct [36]>     <lgl [36]>  77.1
#> 4 03'00" <fct [36]> <fct [36]>     <lgl [36]>  77.1
#> 5 04'00" <fct [36]> <fct [36]>     <lgl [36]>  77.1
#> 6 05'00" <fct [36]> <fct [36]>     <lgl [36]>  77.1
#> # ℹ 1,434 more rows
```
…
