…
This function computes the mean for numeric variables and assigns the
most frequent value (mode) for non-numeric variables. If no mode is
found, it returns the first non-missing value of `x`.

## See also

Other utility functions:
[`find_epoch()`](https://danielvartan.github.io/actverse/reference/find_epoch.md),
[`get_raw_data()`](https://danielvartan.github.io/actverse/reference/get_raw_data.md)

## Examples

``` r
acttrust
#> # A tsibble: 1,441 x 17 [1m] <America/Sao_Paulo>
#>    timestamp             pim   tat   zcm orientation wrist_temperature
#>    <dttm>              <dbl> <dbl> <dbl>       <dbl>             <dbl>
#>  1 2021-04-24 04:14:00  7815   608   228           0              26.9
#>  2 2021-04-24 04:15:00  2661   160    64           0              27.2
#>  3 2021-04-24 04:16:00  3402   243    80           0              27.7
#>  4 2021-04-24 04:17:00  4580   317   125           0              27.9
#>  5 2021-04-24 04:18:00  2624   255    33           0              28.0
#>  6 2021-04-24 04:19:00  3929   246   105           0              28.1
#>  7 2021-04-24 04:20:00  5812   369   171           0              28.2
#>  8 2021-04-24 04:21:00  3182   270    54           0              28.4
#>  9 2021-04-24 04:22:00  6362   373   189           0              28.6
#> 10 2021-04-24 04:23:00  2621   159    64           0              28.7
#> # ℹ 1,431 more rows
#> # ℹ 11 more variables: external_temperature <dbl>, light <dbl>,
#> #   ambient_light <dbl>, red_light <dbl>, green_light <dbl>, blue_light <dbl>,
#> #   ir_light <dbl>, uva_light <dbl>, uvb_light <dbl>, event <dbl>, state <dbl>

aggregate_index(acttrust, unit = "hour")
#> # A tsibble: 25 x 17 [1h] <America/Sao_Paulo>
#>    timestamp              pim    tat   zcm orientation wrist_temperature
#>    <dttm>               <dbl>  <dbl> <dbl>       <dbl>             <dbl>
#>  1 2021-04-24 04:00:00 2424.  182.   50.0            0              29.5
#>  2 2021-04-24 05:00:00 2631.  173.   64.1            0              30.0
#>  3 2021-04-24 06:00:00 1960.  139.   40.2            0              29.9
#>  4 2021-04-24 07:00:00 2453.  163.   56.7            0              29.9
#>  5 2021-04-24 08:00:00 1758.  128.   37.2            0              30.5
#>  6 2021-04-24 09:00:00 2008.  134.   45.3            0              31.0
#>  7 2021-04-24 10:00:00 3129.  192.   94.8            0              30.5
#>  8 2021-04-24 11:00:00  152.    9.72  4.48           0              32.3
#>  9 2021-04-24 12:00:00   72.9   4.18  2.1            0              29.6
#> 10 2021-04-24 13:00:00   79.8   6.22  1.33           0              31.4
#> # ℹ 15 more rows
#> # ℹ 11 more variables: external_temperature <dbl>, light <dbl>,
#> #   ambient_light <dbl>, red_light <dbl>, green_light <dbl>, blue_light <dbl>,
#> #   ir_light <dbl>, uva_light <dbl>, uvb_light <dbl>, event <dbl>, state <dbl>
…
