Compute Phillips et al.'s Sleep Regularity Index (SRI) — sri • actverse
…
}
#> ℹ Reading data
#> ✔ Reading data [235ms]
#> 
#> ℹ Tidying data
#> ✔ Tidying data [399ms]
#> 
#> ℹ Validating data
#> ℹ Found 2 gap in the time series: 2021-04-26 03:14:00/2021-04-26 03:14:00 and 2021-05-01 17:34:00/2021-05-01 17:34:00 (showing up to a total of 5 values).
#> ℹ Validating data
#> ℹ Found 21 offwrist blocks in the time series. All values were set as NA.
#> ℹ Validating data
#> ✔ Validating data [17.9s]
#> 
#> # A tsibble: 1,440 x 6 [1m]
#>    time   state      previous_state agreement    sri valid_data
#>    <time> <list>     <list>         <list>     <dbl>      <dbl>
#>  1 00'00" <fct [36]> <fct [36]>     <lgl [36]>  77.1          1
#>  2 01'00" <fct [36]> <fct [36]>     <lgl [36]>  77.1          1
#>  3 02'00" <fct [36]> <fct [36]>     <lgl [36]>  77.1          1
#>  4 03'00" <fct [36]> <fct [36]>     <lgl [36]>  77.1          1
#>  5 04'00" <fct [36]> <fct [36]>     <lgl [36]>  77.1          1
#>  6 05'00" <fct [36]> <fct [36]>     <lgl [36]>  77.1          1
#>  7 06'00" <fct [36]> <fct [36]>     <lgl [36]>  77.1          1
#>  8 07'00" <fct [36]> <fct [36]>     <lgl [36]>  77.1          1
#>  9 08'00" <fct [36]> <fct [36]>     <lgl [36]>  77.1          1
#> 10 09'00" <fct [36]> <fct [36]>     <lgl [36]>  77.1          1
#> # ℹ 1,430 more rows
…
