Compute the proportion of time spent in a specific state — state_prop • actverse
…
}
#> ℹ Reading data
#> ✔ Reading data [140ms]
#> 
#> ℹ Tidying data
#> ✔ Tidying data [406ms]
#> 
#> ℹ Validating data
#> ℹ Found 2 gap in the time series: 2021-04-26 03:14:00/2021-04-26 03:14:00 and 2021-05-01 17:34:00/2021-05-01 17:34:00 (showing up to a total of 5 values).
#> ℹ Validating data
#> ℹ Found 21 offwrist blocks in the time series. All values were set as NA.
#> ℹ Validating data
#> ✔ Validating data [18.9s]
#> 
#> # A tsibble: 1,440 x 3 [1m]
#>    time   state       prop
#>    <time> <list>     <dbl>
#>  1 00'00" <fct [36]> 0.167
#>  2 01'00" <fct [36]> 0.167
#>  3 02'00" <fct [36]> 0.167
#>  4 03'00" <fct [36]> 0.167
#>  5 04'00" <fct [36]> 0.167
#>  6 05'00" <fct [36]> 0.139
#>  7 06'00" <fct [36]> 0.139
#>  8 07'00" <fct [36]> 0.139
#>  9 08'00" <fct [36]> 0.139
#> 10 09'00" <fct [36]> 0.167
#> # ℹ 1,430 more rows
…
