Write a tsibble to a readable ActTrust file — write_acttrust • actverse
…
    Other read/write functions:
read_acttrust()

    Examples

library(readr)
#> 
#> Attaching package: ‘readr’
#> The following object is masked from ‘package:curl’:
#> 
#>     parse_date

acttrust
#> # A tsibble: 1,441 x 17 [1m] <America/Sao_Paulo>
#>    timestamp             pim   tat   zcm orientation wrist_temperature
#>    <dttm>              <dbl> <dbl> <dbl>       <dbl>             <dbl>
#>  1 2021-04-24 04:14:00  7815   608   228           0              26.9
#>  2 2021-04-24 04:15:00  2661   160    64           0              27.2
#>  3 2021-04-24 04:16:00  3402   243    80           0              27.7
#>  4 2021-04-24 04:17:00  4580   317   125           0              27.9
#>  5 2021-04-24 04:18:00  2624   255    33           0              28.0
#>  6 2021-04-24 04:19:00  3929   246   105           0              28.1
#>  7 2021-04-24 04:20:00  5812   369   171           0              28.2
#>  8 2021-04-24 04:21:00  3182   270    54           0              28.4
#>  9 2021-04-24 04:22:00  6362   373   189           0              28.6
#> 10 2021-04-24 04:23:00  2621   159    64           0              28.7
#> # ℹ 1,431 more rows
#> # ℹ 11 more variables: external_temperature <dbl>, light <dbl>,
#> #   ambient_light <dbl>, red_light <dbl>, green_light <dbl>, blue_light <dbl>,
#> #   ir_light <dbl>, uva_light <dbl>, uvb_light <dbl>, event <dbl>, state <dbl>
…
